<?xml version="1.0" encoding="utf-8"?>
<!-- Generator: Adobe Illustrator 19.2.0, SVG Export Plug-In . SVG Version: 6.00 Build 0)  -->
<svg version="1.1" id="Layer_1" xmlns="http://www.w3.org/2000/svg" xmlns:xlink="http://www.w3.org/1999/xlink" x="0px" y="0px"
	 viewBox="0 0 22 24" style="enable-background:new 0 0 22 24;" xml:space="preserve">
<style type="text/css">
	.st0{fill:#85897D;}
</style>
<g>
	<path class="st0" d="M19.7,12c-1.5,1.4-3.4,2.1-5.3,2.1c-1.9,0-3.8-0.7-5.3-2.1c1.5-1.4,3.4-2.1,5.3-2.1
		C16.3,9.9,18.1,10.6,19.7,12 M22,12c-1.9-2.4-4.6-3.8-7.6-3.8c-3,0-5.7,1.5-7.6,3.8c1.9,2.4,4.6,3.8,7.6,3.8
		C17.4,15.8,20.1,14.4,22,12L22,12z"/>
	<g>
		<path class="st0" d="M9.9,2C9.6,4,8.7,5.7,7.2,7C5.7,8.2,3.8,8.8,1.8,8.8c0.3-2,1.2-3.8,2.7-5C6,2.5,7.9,1.9,9.9,2 M11.7,0.5
			c-3-0.6-6,0.1-8.3,2C1.1,4.4,0,7.2,0,10.3c3,0.6,6-0.1,8.3-2C10.6,6.4,11.7,3.5,11.7,0.5L11.7,0.5z"/>
		<path class="st0" d="M9.9,22c-2.1,0.1-3.9-0.5-5.4-1.8c-1.5-1.2-2.4-3-2.7-5c2.1-0.1,3.9,0.5,5.4,1.8C8.7,18.3,9.6,20,9.9,22
			 M11.7,23.5c0-3-1.1-5.9-3.4-7.8C6,13.8,3,13.2,0,13.7c0,3,1.1,5.9,3.4,7.8C5.7,23.5,8.7,24.1,11.7,23.5L11.7,23.5z"/>
	</g>
</g>
</svg>
