<?xml version="1.0" encoding="utf-8"?>
<!-- Generator: Adobe Illustrator 19.2.0, SVG Export Plug-In . SVG Version: 6.00 Build 0)  -->
<svg version="1.1" id="Layer_1" xmlns="http://www.w3.org/2000/svg" xmlns:xlink="http://www.w3.org/1999/xlink" x="0px" y="0px"
	 viewBox="0 0 12 20" style="enable-background:new 0 0 12 20;" xml:space="preserve">
<style type="text/css">
	.st0{fill:#8F4C45;}
</style>
<path class="st0" d="M12,6.2C12,2.8,9.3,0,6,0C2.7,0,0,2.8,0,6.2c0,1.1,0.3,2.2,0.8,3.1h0L6,20l5.2-10.8h0C11.7,8.3,12,7.3,12,6.2z"
	/>
</svg>
